<?xml version="1.0" encoding="UTF-8"?>
<svg xmlns="http://www.w3.org/2000/svg" xmlns:xlink="http://www.w3.org/1999/xlink" width="85pt" height="23pt" viewBox="0 0 85 23" version="1.1">
<defs>
<g>
<symbol overflow="visible" id="glyph0-0">
<path style="stroke:none;" d="M 0.875 -0.59375 C 0.84375 -0.4375 0.78125 -0.203125 0.78125 -0.15625 C 0.78125 0.015625 0.921875 0.109375 1.078125 0.109375 C 1.203125 0.109375 1.375 0.03125 1.453125 -0.171875 C 1.46875 -0.203125 1.796875 -1.5625 1.84375 -1.75 C 1.921875 -2.078125 2.109375 -2.765625 2.15625 -3.046875 C 2.203125 -3.171875 2.484375 -3.640625 2.71875 -3.859375 C 2.796875 -3.921875 3.09375 -4.1875 3.515625 -4.1875 C 3.78125 -4.1875 3.921875 -4.0625 3.9375 -4.0625 C 3.640625 -4.015625 3.421875 -3.78125 3.421875 -3.515625 C 3.421875 -3.359375 3.53125 -3.171875 3.796875 -3.171875 C 4.0625 -3.171875 4.34375 -3.40625 4.34375 -3.765625 C 4.34375 -4.109375 4.03125 -4.40625 3.515625 -4.40625 C 2.875 -4.40625 2.4375 -3.921875 2.25 -3.640625 C 2.15625 -4.09375 1.796875 -4.40625 1.328125 -4.40625 C 0.875 -4.40625 0.6875 -4.015625 0.59375 -3.84375 C 0.421875 -3.5 0.296875 -2.90625 0.296875 -2.875 C 0.296875 -2.765625 0.390625 -2.765625 0.40625 -2.765625 C 0.515625 -2.765625 0.515625 -2.78125 0.578125 -3 C 0.75 -3.703125 0.953125 -4.1875 1.3125 -4.1875 C 1.46875 -4.1875 1.609375 -4.109375 1.609375 -3.734375 C 1.609375 -3.515625 1.578125 -3.40625 1.453125 -2.890625 Z M 0.875 -0.59375 "/>
</symbol>
<symbol overflow="visible" id="glyph1-0">
<path style="stroke:none;" d="M 1.4375 -0.84375 C 1.1875 -0.453125 0.96875 -0.28125 0.5625 -0.25 C 0.484375 -0.25 0.390625 -0.25 0.390625 -0.109375 C 0.390625 -0.03125 0.453125 0 0.5 0 C 0.671875 0 0.90625 -0.03125 1.09375 -0.03125 C 1.3125 -0.03125 1.609375 0 1.8125 0 C 1.84375 0 1.953125 0 1.953125 -0.15625 C 1.953125 -0.25 1.859375 -0.25 1.828125 -0.25 C 1.78125 -0.265625 1.53125 -0.265625 1.53125 -0.453125 C 1.53125 -0.546875 1.59375 -0.65625 1.625 -0.71875 L 2.1875 -1.59375 L 4.1875 -1.59375 L 4.34375 -0.4375 C 4.328125 -0.359375 4.28125 -0.25 3.875 -0.25 C 3.78125 -0.25 3.6875 -0.25 3.6875 -0.09375 C 3.6875 -0.0625 3.703125 0 3.796875 0 C 4 0 4.5 -0.03125 4.703125 -0.03125 C 4.828125 -0.03125 4.984375 -0.015625 5.109375 -0.015625 C 5.234375 -0.015625 5.375 0 5.5 0 C 5.59375 0 5.640625 -0.0625 5.640625 -0.140625 C 5.640625 -0.25 5.5625 -0.25 5.453125 -0.25 C 5.046875 -0.25 5.03125 -0.3125 5.015625 -0.46875 L 4.390625 -4.78125 C 4.375 -4.921875 4.359375 -4.96875 4.234375 -4.96875 C 4.09375 -4.96875 4.0625 -4.90625 4 -4.8125 Z M 2.359375 -1.84375 L 3.8125 -4.125 L 4.140625 -1.84375 Z M 2.359375 -1.84375 "/>
</symbol>
<symbol overflow="visible" id="glyph1-1">
<path style="stroke:none;" d="M 1.328125 -0.546875 C 1.265625 -0.3125 1.25 -0.25 0.703125 -0.25 C 0.59375 -0.25 0.5 -0.25 0.5 -0.109375 C 0.5 0 0.578125 0 0.703125 0 L 3.40625 0 C 4.578125 0 5.484375 -0.796875 5.484375 -1.484375 C 5.484375 -1.984375 5.03125 -2.40625 4.28125 -2.484375 C 5.125 -2.640625 5.828125 -3.171875 5.828125 -3.765625 C 5.828125 -4.296875 5.296875 -4.765625 4.390625 -4.765625 L 1.859375 -4.765625 C 1.71875 -4.765625 1.625 -4.765625 1.625 -4.609375 C 1.625 -4.515625 1.71875 -4.515625 1.859375 -4.515625 C 1.859375 -4.515625 2 -4.515625 2.125 -4.5 C 2.265625 -4.484375 2.28125 -4.46875 2.28125 -4.390625 C 2.28125 -4.390625 2.28125 -4.34375 2.25 -4.25 Z M 2.4375 -2.578125 L 2.859375 -4.265625 C 2.921875 -4.484375 2.921875 -4.515625 3.21875 -4.515625 L 4.28125 -4.515625 C 4.984375 -4.515625 5.15625 -4.046875 5.15625 -3.78125 C 5.15625 -3.21875 4.515625 -2.578125 3.578125 -2.578125 Z M 2.109375 -0.25 C 1.890625 -0.25 1.875 -0.265625 1.875 -0.328125 C 1.875 -0.328125 1.875 -0.359375 1.90625 -0.46875 L 2.390625 -2.375 L 3.875 -2.375 C 4.515625 -2.375 4.78125 -1.9375 4.78125 -1.546875 C 4.78125 -0.84375 4.0625 -0.25 3.21875 -0.25 Z M 2.109375 -0.25 "/>
</symbol>
<symbol overflow="visible" id="glyph1-2">
<path style="stroke:none;" d="M 1.75 -2.875 C 1.75 -2.90625 1.765625 -2.9375 1.765625 -2.96875 C 1.765625 -2.984375 1.765625 -3.078125 1.65625 -3.078125 C 1.640625 -3.078125 1.25 -3.03125 1.203125 -3.03125 C 1.0625 -3.03125 0.9375 -3.015625 0.8125 -3 C 0.703125 -3 0.609375 -2.984375 0.609375 -2.84375 C 0.609375 -2.75 0.703125 -2.75 0.796875 -2.75 C 1.125 -2.75 1.125 -2.703125 1.125 -2.640625 C 1.125 -2.59375 1.09375 -2.453125 1.0625 -2.375 L 0.71875 -0.96875 C 0.546875 -0.265625 0.515625 -0.125 0.515625 -0.09375 C 0.515625 0 0.609375 0 0.640625 0 L 0.75 0 C 1.375 -0.09375 2.265625 -0.421875 3 -1.09375 C 3.953125 -1.9375 4.09375 -2.84375 4.09375 -2.84375 C 4.09375 -2.96875 4 -3.078125 3.859375 -3.078125 C 3.609375 -3.078125 3.5625 -2.875 3.5 -2.6875 C 3.21875 -1.6875 2.28125 -0.625 1.09375 -0.28125 Z M 1.75 -2.875 "/>
</symbol>
<symbol overflow="visible" id="glyph1-3">
<path style="stroke:none;" d="M 4.765625 -2.578125 C 4.765625 -2.78125 4.671875 -3.078125 4.390625 -3.078125 C 4.21875 -3.078125 4.03125 -2.859375 4.03125 -2.6875 C 4.03125 -2.453125 4.40625 -2.40625 4.40625 -1.9375 C 4.40625 -1.484375 3.953125 -0.484375 3.171875 -0.484375 C 2.84375 -0.484375 2.5625 -0.71875 2.46875 -1.03125 C 2.5625 -1.171875 2.71875 -1.65625 2.71875 -1.84375 C 2.71875 -1.9375 2.65625 -2.046875 2.546875 -2.046875 C 2.1875 -2.046875 2.15625 -1.296875 2.15625 -1.046875 C 1.96875 -0.796875 1.609375 -0.484375 1.15625 -0.484375 C 0.78125 -0.484375 0.515625 -0.828125 0.515625 -1.296875 C 0.515625 -2.109375 1.21875 -2.78125 1.21875 -2.890625 C 1.21875 -2.96875 1.15625 -3.046875 1.078125 -3.046875 C 1.015625 -3.046875 0.96875 -3.015625 0.921875 -2.953125 C 0.828125 -2.84375 0.734375 -2.6875 0.65625 -2.546875 C 0.40625 -2.125 0.234375 -1.546875 0.234375 -1.03125 C 0.234375 -0.484375 0.453125 0.0625 1.09375 0.0625 C 1.5625 0.0625 1.96875 -0.234375 2.21875 -0.609375 C 2.359375 -0.1875 2.65625 0.0625 3.109375 0.0625 C 4.328125 0.0625 4.765625 -2 4.765625 -2.578125 Z M 4.765625 -2.578125 "/>
</symbol>
<symbol overflow="visible" id="glyph1-4">
<path style="stroke:none;" d="M 2.0625 -3.03125 C 1.015625 -2.765625 0.421875 -1.875 0.421875 -1.140625 C 0.421875 -0.390625 0.984375 0.078125 1.671875 0.078125 C 2.515625 0.078125 3.171875 -0.90625 3.171875 -1.921875 C 3.171875 -2.59375 2.8125 -3 2.59375 -3.234375 C 2.34375 -3.53125 1.8125 -4.09375 1.8125 -4.421875 C 1.8125 -4.515625 1.921875 -4.703125 2.203125 -4.703125 C 2.4375 -4.703125 2.640625 -4.59375 2.78125 -4.515625 C 2.84375 -4.484375 3.09375 -4.328125 3.203125 -4.328125 C 3.375 -4.328125 3.5 -4.484375 3.5 -4.625 C 3.5 -4.796875 3.40625 -4.8125 3.03125 -4.890625 C 2.953125 -4.90625 2.625 -4.96875 2.40625 -4.96875 C 1.875 -4.96875 1.59375 -4.671875 1.59375 -4.25 C 1.59375 -3.875 1.8125 -3.453125 2.0625 -3.03125 Z M 2.171875 -2.84375 C 2.375 -2.53125 2.625 -2.125 2.625 -1.625 C 2.625 -1.046875 2.28125 -0.109375 1.6875 -0.109375 C 1.3125 -0.109375 0.9375 -0.359375 0.9375 -0.9375 C 0.9375 -1.40625 1.203125 -2.609375 2.171875 -2.84375 Z M 2.171875 -2.84375 "/>
</symbol>
<symbol overflow="visible" id="glyph2-0">
<path style="stroke:none;" d="M 6.84375 -3.265625 C 7 -3.265625 7.1875 -3.265625 7.1875 -3.453125 C 7.1875 -3.65625 7 -3.65625 6.859375 -3.65625 L 0.890625 -3.65625 C 0.75 -3.65625 0.5625 -3.65625 0.5625 -3.453125 C 0.5625 -3.265625 0.75 -3.265625 0.890625 -3.265625 Z M 6.859375 -1.328125 C 7 -1.328125 7.1875 -1.328125 7.1875 -1.53125 C 7.1875 -1.71875 7 -1.71875 6.84375 -1.71875 L 0.890625 -1.71875 C 0.75 -1.71875 0.5625 -1.71875 0.5625 -1.53125 C 0.5625 -1.328125 0.75 -1.328125 0.890625 -1.328125 Z M 6.859375 -1.328125 "/>
</symbol>
<symbol overflow="visible" id="glyph3-0">
<path style="stroke:none;" d="M 4.203125 5.328125 L 0.65625 9.703125 C 0.578125 9.796875 0.5625 9.8125 0.5625 9.859375 C 0.5625 9.96875 0.65625 9.96875 0.84375 9.96875 L 9.09375 9.96875 L 9.953125 7.484375 L 9.703125 7.484375 C 9.453125 8.234375 8.796875 8.84375 7.9375 9.125 C 7.78125 9.1875 7.09375 9.421875 5.625 9.421875 L 1.390625 9.421875 L 4.859375 5.140625 C 4.921875 5.046875 4.9375 5.03125 4.9375 4.984375 C 4.9375 4.9375 4.9375 4.9375 4.875 4.84375 L 1.640625 0.40625 L 5.578125 0.40625 C 6.71875 0.40625 9.015625 0.46875 9.703125 2.328125 L 9.953125 2.328125 L 9.09375 0 L 0.84375 0 C 0.5625 0 0.5625 0.015625 0.5625 0.3125 Z M 4.203125 5.328125 "/>
</symbol>
<symbol overflow="visible" id="glyph4-0">
<path style="stroke:none;" d="M 1.96875 -3.109375 C 1.96875 -3.234375 1.890625 -3.328125 1.75 -3.328125 C 1.609375 -3.328125 1.453125 -3.1875 1.453125 -3.03125 C 1.453125 -2.890625 1.5625 -2.8125 1.671875 -2.8125 C 1.828125 -2.8125 1.96875 -2.953125 1.96875 -3.109375 Z M 2.203125 -0.71875 C 2.203125 -0.78125 2.125 -0.78125 2.109375 -0.78125 C 2.015625 -0.78125 2.015625 -0.765625 1.984375 -0.671875 C 1.90625 -0.40625 1.671875 -0.109375 1.421875 -0.109375 C 1.3125 -0.109375 1.28125 -0.1875 1.28125 -0.296875 C 1.28125 -0.40625 1.296875 -0.46875 1.34375 -0.5625 C 1.375 -0.65625 1.421875 -0.75 1.453125 -0.828125 C 1.46875 -0.875 1.65625 -1.328125 1.734375 -1.515625 C 1.765625 -1.609375 1.796875 -1.6875 1.796875 -1.765625 C 1.796875 -2 1.5625 -2.203125 1.25 -2.203125 C 0.734375 -2.203125 0.453125 -1.5625 0.453125 -1.4375 C 0.453125 -1.359375 0.53125 -1.359375 0.5625 -1.359375 C 0.640625 -1.359375 0.640625 -1.390625 0.671875 -1.453125 C 0.78125 -1.8125 1.015625 -2.03125 1.234375 -2.03125 C 1.328125 -2.03125 1.390625 -1.984375 1.390625 -1.84375 C 1.390625 -1.828125 1.390625 -1.765625 1.359375 -1.671875 C 1.328125 -1.578125 1.09375 -1.046875 1.03125 -0.875 C 0.984375 -0.78125 0.984375 -0.78125 0.921875 -0.609375 C 0.890625 -0.53125 0.859375 -0.46875 0.859375 -0.390625 C 0.859375 -0.125 1.109375 0.0625 1.40625 0.0625 C 1.921875 0.0625 2.203125 -0.59375 2.203125 -0.71875 Z M 2.203125 -0.71875 "/>
</symbol>
<symbol overflow="visible" id="glyph4-1">
<path style="stroke:none;" d="M 3.625 -3.4375 C 3.609375 -3.53125 3.578125 -3.5625 3.46875 -3.5625 C 3.359375 -3.5625 3.328125 -3.53125 3.28125 -3.453125 L 1.328125 -0.625 C 1.109375 -0.3125 0.9375 -0.234375 0.609375 -0.21875 C 0.515625 -0.21875 0.515625 -0.09375 0.515625 -0.078125 C 0.515625 -0.015625 0.578125 0 0.59375 0 C 0.671875 0 0.75 -0.015625 0.828125 -0.015625 C 0.90625 -0.015625 0.984375 -0.015625 1.078125 -0.015625 C 1.171875 -0.015625 1.265625 -0.015625 1.34375 -0.015625 C 1.4375 -0.015625 1.546875 0 1.640625 0 C 1.671875 0 1.75 0 1.75 -0.140625 C 1.75 -0.21875 1.6875 -0.21875 1.65625 -0.21875 C 1.625 -0.21875 1.421875 -0.234375 1.421875 -0.359375 C 1.421875 -0.40625 1.484375 -0.5 1.515625 -0.546875 L 1.890625 -1.078125 C 1.90625 -1.109375 1.90625 -1.109375 2.015625 -1.109375 L 3.515625 -1.109375 C 3.53125 -1.0625 3.53125 -1.03125 3.546875 -0.96875 C 3.5625 -0.875 3.65625 -0.390625 3.65625 -0.328125 C 3.65625 -0.21875 3.34375 -0.21875 3.328125 -0.21875 C 3.25 -0.21875 3.171875 -0.21875 3.171875 -0.078125 C 3.171875 -0.03125 3.203125 0 3.265625 0 C 3.359375 0 3.484375 -0.015625 3.59375 -0.015625 C 3.71875 -0.015625 3.828125 -0.015625 3.953125 -0.015625 C 4.046875 -0.015625 4.15625 -0.015625 4.265625 -0.015625 C 4.359375 -0.015625 4.484375 0 4.578125 0 C 4.671875 0 4.703125 -0.0625 4.703125 -0.140625 C 4.703125 -0.21875 4.625 -0.21875 4.546875 -0.21875 C 4.21875 -0.21875 4.21875 -0.265625 4.203125 -0.375 Z M 3.171875 -2.953125 L 3.484375 -1.34375 L 2.0625 -1.34375 Z M 3.171875 -2.953125 "/>
</symbol>
<symbol overflow="visible" id="glyph4-2">
<path style="stroke:none;" d="M 1.34375 -0.0625 C 1.34375 0.40625 1.09375 0.6875 0.953125 0.796875 C 0.90625 0.828125 0.890625 0.84375 0.890625 0.875 C 0.890625 0.90625 0.9375 0.96875 0.984375 0.96875 C 1.046875 0.96875 1.515625 0.578125 1.515625 -0.046875 C 1.515625 -0.390625 1.359375 -0.609375 1.140625 -0.609375 C 0.953125 -0.609375 0.84375 -0.453125 0.84375 -0.296875 C 0.84375 -0.140625 0.953125 0 1.140625 0 C 1.21875 0 1.296875 -0.015625 1.34375 -0.0625 Z M 1.34375 -0.0625 "/>
</symbol>
<symbol overflow="visible" id="glyph4-3">
<path style="stroke:none;" d="M 1.234375 -0.40625 C 1.203125 -0.265625 1.1875 -0.21875 0.8125 -0.21875 C 0.6875 -0.21875 0.609375 -0.21875 0.609375 -0.078125 C 0.609375 0 0.6875 0 0.765625 0 L 2.9375 0 C 3.828125 0 4.5625 -0.5625 4.5625 -1.0625 C 4.5625 -1.359375 4.265625 -1.703125 3.59375 -1.78125 C 4.09375 -1.84375 4.796875 -2.171875 4.796875 -2.671875 C 4.796875 -3.09375 4.296875 -3.40625 3.625 -3.40625 L 1.578125 -3.40625 C 1.484375 -3.40625 1.40625 -3.40625 1.40625 -3.265625 C 1.40625 -3.1875 1.46875 -3.1875 1.578125 -3.1875 C 1.640625 -3.1875 1.796875 -3.1875 1.90625 -3.15625 C 1.90625 -3.09375 1.90625 -3.078125 1.890625 -3.03125 Z M 2.078125 -1.859375 L 2.375 -3.015625 C 2.40625 -3.171875 2.40625 -3.1875 2.609375 -3.1875 L 3.53125 -3.1875 C 4.015625 -3.1875 4.25 -2.921875 4.25 -2.65625 C 4.25 -2.265625 3.71875 -1.859375 3.015625 -1.859375 Z M 1.84375 -0.21875 C 1.796875 -0.21875 1.734375 -0.21875 1.6875 -0.234375 C 1.6875 -0.28125 1.6875 -0.28125 1.6875 -0.328125 L 2.03125 -1.6875 L 3.25 -1.6875 C 3.765625 -1.6875 4.015625 -1.390625 4.015625 -1.078125 C 4.015625 -0.59375 3.421875 -0.21875 2.796875 -0.21875 Z M 1.84375 -0.21875 "/>
</symbol>
<symbol overflow="visible" id="glyph5-0">
<path style="stroke:none;" d="M 1.359375 -4.953125 C 1.359375 -5.0625 1.359375 -5.21875 1.1875 -5.21875 C 1.015625 -5.21875 1.015625 -5.0625 1.015625 -4.953125 L 1.015625 1.46875 C 1.015625 1.578125 1.015625 1.734375 1.171875 1.734375 C 1.359375 1.734375 1.359375 1.578125 1.359375 1.46875 Z M 1.359375 -4.953125 "/>
</symbol>
</g>
</defs>
<g id="surface1">
<g style="fill:rgb(0%,0%,0%);fill-opacity:1;">
  <use xlink:href="#glyph0-0" x="0.716016" y="14.34805"/>
</g>
<g style="fill:rgb(0%,0%,0%);fill-opacity:1;">
  <use xlink:href="#glyph1-0" x="5.207036" y="15.84219"/>
</g>
<g style="fill:rgb(0%,0%,0%);fill-opacity:1;">
  <use xlink:href="#glyph1-1" x="11.201038" y="15.84219"/>
</g>
<g style="fill:rgb(0%,0%,0%);fill-opacity:1;">
  <use xlink:href="#glyph2-0" x="20.821836" y="14.34805"/>
</g>
<g style="fill:rgb(0%,0%,0%);fill-opacity:1;">
  <use xlink:href="#glyph3-0" x="32.530836" y="0.80315"/>
</g>
<g style="fill:rgb(0%,0%,0%);fill-opacity:1;">
  <use xlink:href="#glyph4-0" x="43.051936" y="11.26095"/>
</g>
<g style="fill:rgb(0%,0%,0%);fill-opacity:1;">
  <use xlink:href="#glyph5-0" x="47.569906" y="7.52618"/>
</g>
<g style="fill:rgb(0%,0%,0%);fill-opacity:1;">
  <use xlink:href="#glyph1-2" x="49.937096" y="7.52618"/>
</g>
<g style="fill:rgb(0%,0%,0%);fill-opacity:1;">
  <use xlink:href="#glyph4-1" x="53.932796" y="8.525008"/>
</g>
<g style="fill:rgb(0%,0%,0%);fill-opacity:1;">
  <use xlink:href="#glyph4-2" x="59.0898" y="8.525008"/>
</g>
<g style="fill:rgb(0%,0%,0%);fill-opacity:1;">
  <use xlink:href="#glyph4-0" x="61.375798" y="8.525008"/>
</g>
<g style="fill:rgb(0%,0%,0%);fill-opacity:1;">
  <use xlink:href="#glyph1-3" x="64.526196" y="7.52618"/>
</g>
<g style="fill:rgb(0%,0%,0%);fill-opacity:1;">
  <use xlink:href="#glyph4-0" x="69.548066" y="8.525008"/>
</g>
<g style="fill:rgb(0%,0%,0%);fill-opacity:1;">
  <use xlink:href="#glyph1-4" x="72.707046" y="7.52618"/>
</g>
<g style="fill:rgb(0%,0%,0%);fill-opacity:1;">
  <use xlink:href="#glyph4-0" x="76.576966" y="4.51993"/>
</g>
<g style="fill:rgb(0%,0%,0%);fill-opacity:1;">
  <use xlink:href="#glyph4-3" x="76.325013" y="9.51485"/>
</g>
<g style="fill:rgb(0%,0%,0%);fill-opacity:1;">
  <use xlink:href="#glyph5-0" x="82.219933" y="7.52618"/>
</g>
<path style="fill:none;stroke-width:4.05;stroke-linecap:butt;stroke-linejoin:miter;stroke:rgb(0%,0%,0%);stroke-opacity:1;stroke-miterlimit:10;" d="M 325.3125 111.40625 L 845.859375 111.40625 " transform="matrix(0.1,0,0,-0.1,0,23)"/>
<g style="fill:rgb(0%,0%,0%);fill-opacity:1;">
  <use xlink:href="#glyph3-0" x="37.2922" y="12.4578"/>
</g>
<g style="fill:rgb(0%,0%,0%);fill-opacity:1;">
  <use xlink:href="#glyph4-0" x="47.8129" y="22.916"/>
</g>
<g style="fill:rgb(0%,0%,0%);fill-opacity:1;">
  <use xlink:href="#glyph5-0" x="52.32188" y="19.18084"/>
</g>
<g style="fill:rgb(0%,0%,0%);fill-opacity:1;">
  <use xlink:href="#glyph1-2" x="54.68907" y="19.18084"/>
</g>
<g style="fill:rgb(0%,0%,0%);fill-opacity:1;">
  <use xlink:href="#glyph4-1" x="58.68516" y="20.180059"/>
</g>
<g style="fill:rgb(0%,0%,0%);fill-opacity:1;">
  <use xlink:href="#glyph4-2" x="63.842164" y="20.180059"/>
</g>
<g style="fill:rgb(0%,0%,0%);fill-opacity:1;">
  <use xlink:href="#glyph4-0" x="66.128162" y="20.180059"/>
</g>
<g style="fill:rgb(0%,0%,0%);fill-opacity:1;">
  <use xlink:href="#glyph1-3" x="69.28716" y="19.18084"/>
</g>
<g style="fill:rgb(0%,0%,0%);fill-opacity:1;">
  <use xlink:href="#glyph4-0" x="74.30903" y="20.180059"/>
</g>
<g style="fill:rgb(0%,0%,0%);fill-opacity:1;">
  <use xlink:href="#glyph5-0" x="77.45903" y="19.18084"/>
</g>
</g>
</svg>
